<?xml version="1.0" encoding="UTF-8" standalone="no"?>
<!-- Created with Inkscape (http://www.inkscape.org/) -->

<svg
   xmlns:dc="http://purl.org/dc/elements/1.1/"
   xmlns:cc="http://creativecommons.org/ns#"
   xmlns:rdf="http://www.w3.org/1999/02/22-rdf-syntax-ns#"
   xmlns:svg="http://www.w3.org/2000/svg"
   xmlns="http://www.w3.org/2000/svg"
   xmlns:sodipodi="http://sodipodi.sourceforge.net/DTD/sodipodi-0.dtd"
   xmlns:inkscape="http://www.inkscape.org/namespaces/inkscape"
   width="300"
   height="200"
   viewBox="0 0 300 200"
   id="svg2"
   version="1.1"
   inkscape:version="0.92.0 r15299"
   sodipodi:docname="bots.svg">
  <defs
     id="defs4" />
  <sodipodi:namedview
     id="base"
     pagecolor="#ffffff"
     bordercolor="#666666"
     borderopacity="1.0"
     inkscape:pageopacity="0.0"
     inkscape:pageshadow="2"
     inkscape:zoom="1.4142136"
     inkscape:cx="132.52917"
     inkscape:cy="82.723537"
     inkscape:document-units="px"
     inkscape:current-layer="layer1"
     showgrid="false"
     inkscape:snap-bbox="true"
     inkscape:snap-bbox-midpoints="true"
     inkscape:snap-bbox-edge-midpoints="true"
     inkscape:bbox-nodes="true"
     inkscape:bbox-paths="true"
     inkscape:object-paths="true"
     inkscape:snap-intersection-paths="true"
     inkscape:object-nodes="true"
     inkscape:snap-midpoints="true"
     inkscape:snap-smooth-nodes="true"
     units="px"
     inkscape:snap-nodes="true"
     showguides="true"
     inkscape:guide-bbox="true"
     inkscape:window-width="1310"
     inkscape:window-height="739"
     inkscape:window-x="56"
     inkscape:window-y="0"
     inkscape:window-maximized="1" />
  <metadata
     id="metadata7">
    <rdf:RDF>
      <cc:Work
         rdf:about="">
        <dc:format>image/svg+xml</dc:format>
        <dc:type
           rdf:resource="http://purl.org/dc/dcmitype/StillImage" />
        <dc:title></dc:title>
      </cc:Work>
    </rdf:RDF>
  </metadata>
  <g
     inkscape:label="Layer 1"
     inkscape:groupmode="layer"
     id="layer1"
     transform="translate(0,-852.3622)">
    <path
       id="rect5840-63"
       style="opacity:1;fill:#d57f41;fill-opacity:1;fill-rule:nonzero;stroke:none;stroke-width:0.1;stroke-miterlimit:4;stroke-dasharray:none;stroke-opacity:1"
       d="m 75,927.36218 20,0 0,20 -20,0 z m -70,0 20,0 0,20 -20,0 z m 70,-70 20,0 0,20 -20,0 z m -70,0 20,0 0,20 -20,0 z m 5,65 -5,5 5,0 z m 65,-65 -5,5 5,0 z m -45,5 -5,-5 0,5 z m -5,85 5,-5 -5,0 z m 45,-5 5,5 0,-5 z m 24.999999,-15 -5,-5 0,5 z m -4.999999,-45 5,-5 -5,0 z m -85,-5 5,5 0,-5 z m 5,-15 80,0 0,80 -80,0 z" />
    <g
       id="g4308">
      <rect
         y="872.36218"
         x="20"
         height="60"
         width="60"
         id="rect4240"
         style="opacity:1;fill:#9cd69f;fill-opacity:1;fill-rule:nonzero;stroke:none;stroke-opacity:1" />
    </g>
    <rect
       style="opacity:1;fill:#d7523e;fill-opacity:1;fill-rule:nonzero;stroke:none;stroke-width:0.1;stroke-miterlimit:4;stroke-dasharray:none;stroke-opacity:1"
       id="rect5240"
       width="80"
       height="80"
       x="10"
       y="962.36218" />
    <rect
       style="opacity:1;fill:#9cd69f;fill-opacity:1;fill-rule:nonzero;stroke:none;stroke-opacity:1"
       id="rect4240-6"
       width="40"
       height="40"
       x="30"
       y="982.36218" />
    <rect
       style="opacity:1;fill:#d7523e;fill-opacity:1;fill-rule:nonzero;stroke:none;stroke-width:0.1;stroke-miterlimit:4;stroke-dasharray:none;stroke-opacity:1"
       id="rect5240-6-1"
       width="80"
       height="80"
       x="110"
       y="962.36224" />
    <rect
       style="opacity:1;fill:#94c8ea;fill-opacity:1;fill-rule:nonzero;stroke:none;stroke-opacity:1"
       id="rect4240-6-1"
       width="40"
       height="40"
       x="130"
       y="982.36224" />
    <rect
       style="opacity:1;fill:#c16254;fill-opacity:1;fill-rule:nonzero;stroke:none;stroke-width:0.1;stroke-miterlimit:4;stroke-dasharray:none;stroke-opacity:1"
       id="rect5240-6-5"
       width="80"
       height="80"
       x="210"
       y="962.36224" />
    <rect
       style="opacity:1;fill:#b9c0c4;fill-opacity:1;fill-rule:nonzero;stroke:none;stroke-opacity:1"
       id="rect4240-6-5-7"
       width="40"
       height="40"
       x="230"
       y="982.36224" />
    <rect
       style="opacity:1;fill:#4caf50;fill-opacity:1;fill-rule:nonzero;stroke:none;stroke-width:0.1;stroke-miterlimit:4;stroke-dasharray:none;stroke-opacity:1"
       id="rect5305-6"
       width="20"
       height="20"
       x="5"
       y="857.36218" />
    <rect
       style="opacity:1;fill:#4caf50;fill-opacity:1;fill-rule:nonzero;stroke:none;stroke-width:0.1;stroke-miterlimit:4;stroke-dasharray:none;stroke-opacity:1"
       id="rect5442"
       width="20"
       height="20"
       x="10"
       y="962.36218" />
    <rect
       style="opacity:1;fill:#4caf50;fill-opacity:1;fill-rule:nonzero;stroke:none;stroke-width:0.1;stroke-miterlimit:4;stroke-dasharray:none;stroke-opacity:1"
       id="rect5442-3"
       width="20"
       height="20"
       x="10"
       y="1022.3622" />
    <rect
       style="opacity:1;fill:#4caf50;fill-opacity:1;fill-rule:nonzero;stroke:none;stroke-width:0.1;stroke-miterlimit:4;stroke-dasharray:none;stroke-opacity:1"
       id="rect5442-0"
       width="20"
       height="20"
       x="70"
       y="1022.3622" />
    <rect
       style="opacity:1;fill:#4caf50;fill-opacity:1;fill-rule:nonzero;stroke:none;stroke-width:0.1;stroke-miterlimit:4;stroke-dasharray:none;stroke-opacity:1"
       id="rect5442-7"
       width="20"
       height="20"
       x="70"
       y="962.36218" />
    <rect
       style="opacity:1;fill:#2196f3;fill-opacity:1;fill-rule:nonzero;stroke:none;stroke-width:0.1;stroke-miterlimit:4;stroke-dasharray:none;stroke-opacity:1"
       id="rect5442-7-8"
       width="20"
       height="20"
       x="110"
       y="962.36224" />
    <rect
       style="opacity:1;fill:#2196f3;fill-opacity:1;fill-rule:nonzero;stroke:none;stroke-width:0.1;stroke-miterlimit:4;stroke-dasharray:none;stroke-opacity:1"
       id="rect5442-7-6"
       width="20"
       height="20"
       x="170"
       y="962.36224" />
    <rect
       style="opacity:1;fill:#2196f3;fill-opacity:1;fill-rule:nonzero;stroke:none;stroke-width:0.1;stroke-miterlimit:4;stroke-dasharray:none;stroke-opacity:1"
       id="rect5442-7-88"
       width="20"
       height="20"
       x="170"
       y="1022.3622" />
    <rect
       style="opacity:1;fill:#2196f3;fill-opacity:1;fill-rule:nonzero;stroke:none;stroke-width:0.1;stroke-miterlimit:4;stroke-dasharray:none;stroke-opacity:1"
       id="rect5442-7-4"
       width="20"
       height="20"
       x="110"
       y="1022.3623" />
    <rect
       style="opacity:1;fill:#848484;fill-opacity:0.94117647;fill-rule:nonzero;stroke:none;stroke-width:0.1;stroke-miterlimit:4;stroke-dasharray:none;stroke-opacity:1"
       id="rect5442-7-3"
       width="20"
       height="20"
       x="210"
       y="962.36224" />
    <rect
       style="opacity:1;fill:#848484;fill-opacity:0.94117647;fill-rule:nonzero;stroke:none;stroke-width:0.1;stroke-miterlimit:4;stroke-dasharray:none;stroke-opacity:1"
       id="rect5442-7-1"
       width="20"
       height="20"
       x="270"
       y="1022.3622" />
    <rect
       style="opacity:1;fill:#848484;fill-opacity:0.94117647;fill-rule:nonzero;stroke:none;stroke-width:0.1;stroke-miterlimit:4;stroke-dasharray:none;stroke-opacity:1"
       id="rect5442-7-49"
       width="20"
       height="20"
       x="270"
       y="962.36224" />
    <rect
       style="opacity:1;fill:#848484;fill-opacity:0.94117647;fill-rule:nonzero;stroke:none;stroke-width:0.1;stroke-miterlimit:4;stroke-dasharray:none;stroke-opacity:1"
       id="rect5442-7-2"
       width="20"
       height="20"
       x="210"
       y="1022.3623" />
    <rect
       style="opacity:1;fill:#4caf50;fill-opacity:1;fill-rule:nonzero;stroke:none;stroke-width:0.1;stroke-miterlimit:4;stroke-dasharray:none;stroke-opacity:1"
       id="rect5305-6-8"
       width="20"
       height="20"
       x="75"
       y="927.36218" />
    <rect
       style="opacity:1;fill:#4caf50;fill-opacity:1;fill-rule:nonzero;stroke:none;stroke-width:0.1;stroke-miterlimit:4;stroke-dasharray:none;stroke-opacity:1"
       id="rect5305-6-8-9"
       width="20"
       height="20"
       x="5"
       y="927.36218" />
    <rect
       style="opacity:1;fill:#4caf50;fill-opacity:1;fill-rule:nonzero;stroke:none;stroke-width:0.1;stroke-miterlimit:4;stroke-dasharray:none;stroke-opacity:1"
       id="rect5305-6-8-9-2"
       width="20"
       height="20"
       x="75"
       y="857.36218" />
    <path
       inkscape:connector-curvature="0"
       id="rect5840-63-9"
       style="opacity:1;fill:#d57f41;fill-opacity:1;fill-rule:nonzero;stroke:none;stroke-width:0.1;stroke-miterlimit:4;stroke-dasharray:none;stroke-opacity:1"
       d="m 175,927.36218 20,0 0,19.99999 -20,0 z m -70,0 20,0 0,19.99999 -20,0 z m 70,-70 20,0 0,20 -20,0 z m -70,0 20,0 0,20 -20,0 z m 5,65 -5,5 5,0 z m 65,-65 -5,5 5,0 z m -45,5 -5,-5 0,5 z m -5,84.99999 5,-4.99999 -5,0 z m 45,-4.99999 5,4.99999 0,-4.99999 z m 25,-15 -5,-5 0,5 z m -5,-45 5,-5 -5,0 z m -85,-5 5,5 0,-5 z m 5,-15 80,0 0,80 -80,0 z" />
    <g
       transform="translate(100,1.6171875e-6)"
       id="g4308-0">
      <rect
         y="872.36218"
         x="20"
         height="60"
         width="60"
         id="rect4240-8"
         style="opacity:1;fill:#94c8ea;fill-opacity:1;fill-rule:nonzero;stroke:none;stroke-opacity:1" />
    </g>
    <rect
       style="opacity:1;fill:#2196f3;fill-opacity:1;fill-rule:nonzero;stroke:none;stroke-width:0.1;stroke-miterlimit:4;stroke-dasharray:none;stroke-opacity:1"
       id="rect5305-6-85"
       width="20"
       height="20"
       x="105"
       y="857.36218" />
    <rect
       style="opacity:1;fill:#2196f3;fill-opacity:1;fill-rule:nonzero;stroke:none;stroke-width:0.1;stroke-miterlimit:4;stroke-dasharray:none;stroke-opacity:1"
       id="rect5305-6-8-0"
       width="20"
       height="20"
       x="175"
       y="927.36218" />
    <rect
       style="opacity:1;fill:#2196f3;fill-opacity:1;fill-rule:nonzero;stroke:none;stroke-width:0.1;stroke-miterlimit:4;stroke-dasharray:none;stroke-opacity:1"
       id="rect5305-6-8-9-9"
       width="20"
       height="20"
       x="105"
       y="927.36218" />
    <rect
       style="opacity:1;fill:#2196f3;fill-opacity:1;fill-rule:nonzero;stroke:none;stroke-width:0.1;stroke-miterlimit:4;stroke-dasharray:none;stroke-opacity:1"
       id="rect5305-6-8-9-2-6"
       width="20"
       height="20"
       x="175"
       y="857.36218" />
    <path
       inkscape:connector-curvature="0"
       id="rect5840-63-9-3"
       style="opacity:1;fill:#c28254;fill-opacity:1;fill-rule:nonzero;stroke:none;stroke-width:0.1;stroke-miterlimit:4;stroke-dasharray:none;stroke-opacity:1"
       d="m 275,927.36221 20,0 0,19.99999 -20,0 z m -70,0 20,0 0,19.99999 -20,0 z m 70,-70 20,0 0,20 -20,0 z m -70,0 20,0 0,20 -20,0 z m 5,65 -5,5 5,0 z m 65,-65 -5,5 5,0 z m -45,5 -5,-5 0,5 z m -5,84.99999 5,-4.99999 -5,0 z m 45,-4.99999 5,4.99999 0,-4.99999 z m 25,-15 -5,-5 0,5 z m -5,-45 5,-5 -5,0 z m -85,-5 5,5 0,-5 z m 5,-15 80,0 0,80 -80,0 z" />
    <g
       transform="translate(200,3.4e-5)"
       id="g4308-0-0">
      <rect
         y="872.36218"
         x="20"
         height="60"
         width="60"
         id="rect4240-8-4"
         style="opacity:1;fill:#b9c0c4;fill-opacity:1;fill-rule:nonzero;stroke:none;stroke-opacity:1" />
    </g>
    <rect
       style="opacity:1;fill:#848484;fill-opacity:1;fill-rule:nonzero;stroke:none;stroke-width:0.1;stroke-miterlimit:4;stroke-dasharray:none;stroke-opacity:1"
       id="rect5305-6-85-4"
       width="20"
       height="20"
       x="205"
       y="857.36218" />
    <rect
       style="opacity:1;fill:#848484;fill-opacity:1;fill-rule:nonzero;stroke:none;stroke-width:0.1;stroke-miterlimit:4;stroke-dasharray:none;stroke-opacity:1"
       id="rect5305-6-8-0-4"
       width="20"
       height="20"
       x="275"
       y="927.36218" />
    <rect
       style="opacity:1;fill:#848484;fill-opacity:1;fill-rule:nonzero;stroke:none;stroke-width:0.1;stroke-miterlimit:4;stroke-dasharray:none;stroke-opacity:1"
       id="rect5305-6-8-9-9-4"
       width="20"
       height="20"
       x="205"
       y="927.36218" />
    <rect
       style="opacity:1;fill:#848484;fill-opacity:1;fill-rule:nonzero;stroke:none;stroke-width:0.1;stroke-miterlimit:4;stroke-dasharray:none;stroke-opacity:1"
       id="rect5305-6-8-9-2-6-7"
       width="20"
       height="20"
       x="275"
       y="857.36218" />
  </g>
</svg>
